simulation/qsim/CODE8B.msim.vcd
$comment
	File created using the following command:
		vcd file CODE8B.msim.vcd -direction
$end
$date
	Wed May 09 14:00:01 2018
$end
$version
	ModelSim Version 10.1d
$end
$timescale
	1ps
$end
$scope module CODE8B_vlg_vec_tst $end
$var reg 4 ! a [0:3] $end
$var reg 4 " b [0:3] $end
$var wire 1 # c [0] $end
$var wire 1 $ c [1] $end
$var wire 1 % c [2] $end
$var wire 1 & c [3] $end
$var wire 1 ' c [4] $end
$var wire 1 ( c [5] $end
$var wire 1 ) c [6] $end
$var wire 1 * c [7] $end
$var wire 1 + sampler $end
$scope module i1 $end
$var wire 1 , gnd $end
$var wire 1 - vcc $end
$var wire 1 . unknown $end
$var tri1 1 / devclrn $end
$var tri1 1 0 devpor $end
$var tri1 1 1 devoe $end
$var wire 1 2 Mult0|auto_generated|cs2a[1]~0_combout $end
$var wire 1 3 a[0]~input_o $end
$var wire 1 4 c[7]~output_o $end
$var wire 1 5 c[6]~output_o $end
$var wire 1 6 c[5]~output_o $end
$var wire 1 7 c[4]~output_o $end
$var wire 1 8 c[3]~output_o $end
$var wire 1 9 c[2]~output_o $end
$var wire 1 : c[1]~output_o $end
$var wire 1 ; c[0]~output_o $end
$var wire 1 < b[2]~input_o $end
$var wire 1 = b[3]~input_o $end
$var wire 1 > a[3]~input_o $end
$var wire 1 ? Mult0|auto_generated|op_3~0_combout $end
$var wire 1 @ a[2]~input_o $end
$var wire 1 A Mult0|auto_generated|op_3~1 $end
$var wire 1 B Mult0|auto_generated|op_3~2_combout $end
$var wire 1 C a[1]~input_o $end
$var wire 1 D Mult0|auto_generated|op_1~0_combout $end
$var wire 1 E b[1]~input_o $end
$var wire 1 F b[0]~input_o $end
$var wire 1 G Mult0|auto_generated|op_3~3 $end
$var wire 1 H Mult0|auto_generated|op_3~4_combout $end
$var wire 1 I Mult0|auto_generated|op_1~1 $end
$var wire 1 J Mult0|auto_generated|op_1~2_combout $end
$var wire 1 K Mult0|auto_generated|op_3~5 $end
$var wire 1 L Mult0|auto_generated|op_3~6_combout $end
$var wire 1 M Mult0|auto_generated|op_1~3 $end
$var wire 1 N Mult0|auto_generated|op_1~4_combout $end
$var wire 1 O Mult0|auto_generated|op_3~7 $end
$var wire 1 P Mult0|auto_generated|op_3~8_combout $end
$var wire 1 Q Mult0|auto_generated|op_1~5 $end
$var wire 1 R Mult0|auto_generated|op_1~6_combout $end
$var wire 1 S Mult0|auto_generated|op_3~9 $end
$var wire 1 T Mult0|auto_generated|op_3~10_combout $end
$var wire 1 U Mult0|auto_generated|op_1~7 $end
$var wire 1 V Mult0|auto_generated|op_1~8_combout $end
$var wire 1 W Mult0|auto_generated|op_3~11 $end
$var wire 1 X Mult0|auto_generated|op_3~12_combout $end
$var wire 1 Y Mult0|auto_generated|op_1~9 $end
$var wire 1 Z Mult0|auto_generated|op_1~10_combout $end
$var wire 1 [ Mult0|auto_generated|op_3~13 $end
$var wire 1 \ Mult0|auto_generated|op_3~14_combout $end
$var wire 1 ] Mult0|auto_generated|le4a [5] $end
$var wire 1 ^ Mult0|auto_generated|le4a [4] $end
$var wire 1 _ Mult0|auto_generated|le4a [3] $end
$var wire 1 ` Mult0|auto_generated|le4a [2] $end
$var wire 1 a Mult0|auto_generated|le4a [1] $end
$var wire 1 b Mult0|auto_generated|le4a [0] $end
$var wire 1 c Mult0|auto_generated|le5a [4] $end
$var wire 1 d Mult0|auto_generated|le5a [3] $end
$var wire 1 e Mult0|auto_generated|le5a [2] $end
$var wire 1 f Mult0|auto_generated|le5a [1] $end
$var wire 1 g Mult0|auto_generated|le5a [0] $end
$var wire 1 h Mult0|auto_generated|le3a [5] $end
$var wire 1 i Mult0|auto_generated|le3a [4] $end
$var wire 1 j Mult0|auto_generated|le3a [3] $end
$var wire 1 k Mult0|auto_generated|le3a [2] $end
$var wire 1 l Mult0|auto_generated|le3a [1] $end
$var wire 1 m Mult0|auto_generated|le3a [0] $end
$upscope $end
$upscope $end
$enddefinitions $end
#0
$dumpvars
b101 !
b1001 "
1*
0)
1(
1'
0&
1%
0$
0#
x+
0,
1-
x.
1/
10
11
02
03
14
05
16
17
08
19
0:
0;
0<
1=
1>
1?
0@
0A
0B
1C
0D
0E
1F
1G
1H
1I
1J
0K
1L
1M
1N
1O
0P
0Q
0R
1S
1T
1U
0V
1W
0X
1Y
1Z
0[
0\
1b
0a
1`
0_
1^
1]
1g
0f
1e
0d
zc
1m
0l
1k
0j
0i
0h
$end
#5000
b100 !
b1000 "
b1100 "
0=
1E
0>
0+
0k
0m
0g
12
1a
0I
1D
0S
0`
1_
0O
0?
1P
0L
0J
1K
0N
1R
1S
04
18
07
0*
1&
0'
0H
0T
0P
0S
0W
06
09
08
0(
0%
0&
1P
1W
18
1&
1T
1X
19
1:
1%
1$
0X
0:
0$
#10000
b1110 "
b110 "
b111 "
b11 "
1=
1<
0E
0F
1+
1l
1m
1i
1j
0e
1h
0]
0b
0^
1?
1A
1N
1J
0Y
0W
0Z
1`
0a
0D
0_
0K
14
1*
1B
0?
1\
1X
0T
1H
0G
1S
1O
1Z
1[
1Q
0N
0R
15
04
1;
1:
09
16
1)
0*
1#
1$
0%
1(
0B
0P
1L
0X
0\
0H
0S
1R
05
08
17
0:
0;
06
0)
0&
1'
0$
0#
0(
1H
16
1(
#15000
b110 !
b1 "
b1001 "
b1101 "
0<
1E
1F
1@
0+
1e
1f
0h
1]
1b
1k
0A
0m
1^
0i
0j
1a
1?
1Y
0U
0R
0[
1W
0Z
0`
0a
1I
1_
1K
1G
0Q
1N
0J
0O
14
1*
1\
1X
1T
0H
1B
0?
0L
1Z
1V
0N
1O
1J
0K
1S
1;
1:
19
06
15
04
07
1#
1$
1%
0(
1)
0*
0'
0T
0X
1L
1H
0S
09
0:
17
16
0%
0$
1'
1(
0\
1X
1T
0;
1:
19
0#
1$
1%
0T
09
0%
#20000
b10 !
b11 !
b1 !
b1111 "
b111 "
1<
0F
1>
0@
0C
1+
0e
0f
1h
1g
1i
02
1j
1a
1`
1?
0V
1U
1R
1[
1Q
0a
0M
0J
0O
14
1*
1\
0X
1T
1P
0L
0[
0Y
1V
0W
0U
0R
1O
1N
1S
1;
0:
19
18
07
1#
0$
1%
1&
0'
1X
0T
0\
0P
0Z
1[
1Y
0V
1:
09
0;
08
1$
0%
0#
0&
1\
1Z
1;
1#
0X
0:
0$
0\
0;
0#
#25000
b1001 !
b1000 !
b1010 !
b101 "
b1101 "
0<
1F
0>
1@
13
0+
1d
1f
0h
0g
0k
0i
12
1a
0`
0?
0Z
1R
0[
1W
0S
0I
1D
0Q
1`
0a
0_
04
0*
1\
1X
1T
1P
1L
1M
1J
1K
1U
1Q
0N
1;
1:
19
18
17
1#
1$
1%
1&
1'
0X
0H
0L
0Q
1N
0O
0Y
1V
0U
0R
0:
06
07
0$
0(
0'
0P
1U
1R
1S
1Z
1Y
0V
08
0&
1X
0T
0Y
1V
0W
0Z
1:
09
1$
0%
0\
0X
1Z
1[
0;
0:
0#
0$
1\
1;
1#
#30000
b1100 "
b1000 "
b1110 !
b110 !
b1010 "
b10 "
1C
03
0=
1<
0E
0F
1+
0`
1_
0j
0d
0^
1i
1m
0f
1h
0]
0b
1?
0J
0V
1A
1`
1a
0D
0_
0K
14
1*
0?
0\
1X
1T
1H
1O
0G
1Q
0N
0R
04
0;
1:
19
16
0*
0#
1$
1%
1(
1L
0X
0B
0H
0S
1R
17
0:
05
06
1'
0$
0)
0(
1H
0T
16
09
1(
0%
#35000
b111 !
b101 !
b11 "
b111 "
b101 "
1=
0<
1E
1>
0@
0+
1k
0l
0i
0h
1b
0A
0a
1?
1D
1G
0Q
1N
0[
1W
1K
14
1*
1\
1X
1T
0H
0L
0R
1;
1:
19
06
07
1#
1$
1%
0(
0'
1P
0\
0X
1L
18
0;
0:
17
1&
0#
0$
1'
0T
09
0%
#40000
b1101 "
b111 !
b1001 "
1@
0E
1F
1+
1f
1a
1l
1e
1g
1]
1^
02
1R
0O
1Y
1S
0Z
0`
0a
1I
0D
0L
1B
0P
0W
1Z
0N
1O
1J
0K
07
15
08
0'
1)
0&
1P
1\
1L
1H
0S
18
1;
17
16
1&
1#
1'
1(
1X
0\
1W
1:
0;
1$
0#
1T
19
1%
0X
0:
0$
#45000
b1111 !
b1011 "
b11 "
b1101 !
1<
0F
0@
13
0+
0e
0f
1h
0g
0]
0k
1A
0m
0^
1i
12
1`
0?
0Y
0R
0W
0Z
0I
1_
0G
0A
1Q
04
0*
1\
1X
0T
0P
0B
1?
1Z
1W
1[
0J
0U
1K
1G
1;
1:
09
08
05
14
1#
1$
0%
0&
0)
1*
1T
0X
0\
0H
1B
0[
1V
0K
19
0:
0;
06
15
1%
0$
0#
0(
1)
1X
1H
1[
1:
16
1$
1(
1\
0X
0L
1;
0:
07
1#
0$
0'
0\
0;
0#
#50000
b1001 !
b1000 !
b1 "
0<
0>
0C
1+
0h
0b
0l
0i
02
1j
0`
0?
0[
0Q
0_
1J
04
0*
1\
1X
0T
0H
0B
1U
1;
1:
09
06
05
1#
1$
0%
0(
0)
0\
1L
0V
0;
17
0#
1'
0X
0:
0$
#55000
b0 "
b1000 "
b1100 !
b1101 !
1>
1C
0=
1F
0+
1g
1b
1e
0j
1d
1]
1V
0J
1`
1D
1P
1H
1N
1K
18
16
1&
1(
1X
0L
0H
1S
1:
07
06
1$
0'
0(
0P
1L
08
17
0&
1'
1T
19
1%
#60000
b1111 !
b1010 "
b10 "
b1110 !
1<
0F
0>
1@
1+
0d
0e
1h
0g
0]
0b
1l
1m
12
1a
0`
1?
0V
1[
0W
0S
1`
0D
1_
0K
1A
0O
0N
14
1*
1\
0X
0T
1P
1H
1B
0?
0L
1W
1N
1R
1O
0G
1;
0:
09
18
16
15
04
07
1#
0$
0%
1&
1(
1)
0*
0'
0\
1T
0H
1L
0B
0[
0W
0;
19
06
17
05
0#
1%
0(
1'
0)
1X
0T
1H
1[
1:
09
16
1$
0%
1(
1\
0X
1;
0:
1#
0$
0\
0;
0#
#65000
b11 "
b1010 !
b1 "
0C
1=
0<
0+
0`
1j
0m
0h
0A
02
1?
0N
1J
0[
1W
1G
0a
0_
14
1*
0?
1\
1X
1T
1B
0R
04
1;
1:
19
15
0*
1#
1$
1%
1)
0P
0\
0X
0H
08
0;
0:
06
0&
0#
0$
0(
0T
09
0%
#70000
b101 "
b10 !
b1101 "
b11 !
b111 !
b1111 "
1>
1C
03
1<
1E
1F
1+
1g
0l
1e
1i
1f
1h
1?
1V
1N
1R
14
1*
1P
0B
1\
1X
1T
1[
1S
0W
18
05
1;
1:
19
1&
0)
1#
1$
1%
0X
0P
0T
0:
08
09
0$
0&
0%
0\
1T
1X
0;
19
1:
0#
1%
1$
#75000
b101 !
b1110 "
b1010 "
b1101 !
b1100 !
b1000 "
0=
0<
0E
0>
0@
13
0+
0i
0j
1d
0f
0h
0g
1]
1b
0?
0N
0J
0R
0S
1`
1a
1D
04
0*
1\
0X
0T
1P
1H
1W
1N
1K
1;
0:
09
18
16
1#
0$
0%
1&
1(
0P
0H
0[
0O
08
06
0&
0(
1X
1P
0L
1S
1:
18
07
1$
1&
0'
0\
0P
0;
08
0#
0&
1T
19
1%
#80000
b0 "
b1000 !
b100 "
b1001 !
b110 "
1>
0C
1<
1E
0F
1+
1g
0a
1m
0e
1k
1_
1j
1h
1?
1O
1A
0V
1I
0D
1R
1J
1[
0W
14
1*
1P
1L
0?
1\
0X
0T
0M
0J
0K
0O
18
17
04
1;
0:
09
1&
1'
0*
1#
0$
0%
0P
1B
1H
1T
0L
0\
1Q
0N
1O
08
15
16
19
07
0;
0&
1)
1(
1%
0'
0#
1P
0U
0R
0S
18
1&
1V
1W
#85000
b1011 !
b10 "
b1010 !
0E
0>
1@
0+
0d
0g
0]
0b
12
1a
1l
0`
0k
0I
0G
0Q
1N
0P
0H
1L
0B
1M
1J
1U
1R
08
06
17
05
0&
0(
1'
0)
1H
1P
0N
0O
0V
0W
16
18
1(
1&
0L
0T
07
09
0'
0%
#90000
b11 "
b1110 !
b1111 !
1>
1C
1=
1+
1b
0l
0m
1`
0j
1i
1K
1G
0A
1Q
0J
0H
1B
1?
0K
0U
0R
06
15
14
0(
1)
1*
1H
0B
1O
1V
1W
16
05
1(
0)
1L
1T
17
19
1'
1%
0P
08
0&
#95000
b1 "
b1101 !
b1100 !
0>
0@
0<
0+
0a
0b
1k
0h
0i
02
1j
0?
1D
0[
0Q
1N
0`
0_
1J
04
0*
0L
0H
1\
1X
0T
1U
0N
07
06
1;
1:
09
0'
0(
1#
1$
0%
1H
0\
1P
1L
0V
16
0;
18
17
1(
0#
1&
1'
0P
08
0&
0X
0:
0$
#100000
b1001 "
b1101 "
b1100 "
b1000 !
b1110 "
b1001 !
1>
0C
0=
1<
1E
1F
1+
1g
1m
1d
1h
1?
1A
0Z
14
1*
1P
0?
1\
1X
1T
18
04
1;
1:
19
1&
0*
1#
1$
1%
1B
0\
15
0;
1)
0#
#105000
b1 !
b110 "
b10 "
b101 !
b0 "
0<
0E
0F
1C
03
0+
0d
0h
0g
0k
0A
0m
0j
1?
1Z
0D
0J
14
1*
1\
0X
0T
0P
0B
0?
1;
0:
09
08
05
04
1#
0$
0%
0&
0)
0*
0\
0H
0L
0;
06
07
0#
0(
0'
#110000
b111 !
b110 !
b1110 !
b100 "
b110 "
1<
1E
0>
1@
13
1+
1d
1e
1f
1h
1]
1b
1l
1m
1?
1V
1R
1a
1D
1A
14
1*
1\
1X
1T
1H
1B
0?
1[
0W
1K
0G
1;
1:
19
16
15
04
1#
1$
1%
1(
1)
0*
0X
0T
1L
0H
0B
0O
0:
09
17
06
05
0$
0%
1'
0(
0)
0\
1X
0L
1H
0;
1:
07
16
0#
1$
0'
1(
1P
18
1&
#115000
b1110 "
b1010 !
b1000 !
b1001 !
1>
0@
0C
1F
0+
1g
0a
0b
0l
0f
1`
1k
0e
1_
1j
0]
1S
1O
1G
1N
0V
1J
0Z
0`
0_
0P
1L
0H
1B
0K
0O
0N
0R
08
17
06
15
0&
1'
0(
1)
1T
1H
0X
0L
1\
1O
19
16
0:
07
1;
1%
1(
0$
0'
1#
1L
0T
0S
17
09
1'
0%
1P
1W
18
1&
1T
0[
19
1%
1X
1:
1$
0\
0;
0#
#120000
b1111 "
b1011 !
1@
1=
1+
1f
0m
1i
0j
1R
0A
1N
0J
1?
0W
1S
14
1*
0T
0B
0P
0L
1[
09
05
08
07
0%
0)
0&
0'
0X
1T
0:
19
0$
1%
1\
1;
1#
#125000
b1011 "
b11 "
b1111 !
b1110 !
b10 "
b1100 !
0>
0@
1C
0=
0E
0F
0+
0g
1l
1m
0f
0i
0d
12
0S
1A
0R
0N
1Z
1`
1_
1P
1B
0?
1W
0G
1N
1R
18
15
04
1&
1)
0*
0B
0P
0\
0[
1K
0W
05
08
0;
0)
0&
0#
1X
0H
1P
0T
1[
1:
06
18
09
1$
0(
1&
0%
1\
1L
0X
1;
17
0:
1#
1'
0$
0\
0;
0#
#130000
b100 !
b0 "
b1000 "
b0 !
b1 !
b1001 "
1=
0<
1F
1>
0C
03
1+
0k
0l
0h
1g
1]
1b
0A
1^
02
0`
0_
1?
1G
0[
1W
1S
0Z
1`
1_
1V
0N
0R
14
1*
1\
1X
1T
0P
1H
1N
1R
0S
1;
1:
19
08
16
1#
1$
1%
0&
1(
0H
1P
1S
06
18
0(
1&
0P
0W
08
0&
0T
1[
09
0%
0X
0:
0$
0\
0;
0#
#135000
b1101 "
b1001 !
b1111 "
b1101 !
b1100 !
b1110 "
0>
1C
13
0=
1<
1E
0+
0g
1a
0b
1l
1e
1k
0_
1d
0^
1h
0]
1A
0?
0S
0O
0K
0G
0R
0`
0a
04
0*
1P
0L
1H
1\
1X
1T
1W
1S
1O
1K
0N
18
07
16
1;
1:
19
1&
0'
1(
1#
1$
1%
0P
0H
0W
0S
08
06
0&
0(
0X
0T
1L
1W
0:
09
17
0$
0%
1'
1X
1T
1:
19
1$
1%
0X
0:
0$
#140000
b1110 !
b1010 "
b1000 "
b1111 !
b1001 "
1=
0<
0E
1>
1@
1+
1j
1f
0h
1g
1]
1b
0A
1?
1J
1R
0[
1Z
1I
0D
1G
14
1*
0\
1X
0T
1P
1H
1B
0O
0M
0J
0K
0;
1:
09
18
16
15
0#
1$
0%
1&
1(
1)
0L
1T
1S
1N
1O
07
19
0'
1%
0P
0W
08
0&
0T
1[
09
0%
0X
0:
0$
1\
1;
1#
#145000
b111 !
b11 !
b1 !
b1101 "
b1111 "
b0 !
b1110 "
0=
1<
1E
0>
0@
0C
03
0+
1i
0d
0e
0f
1h
0g
0]
0b
1A
1a
1`
1_
0?
1Q
0V
0S
0`
0a
0I
1D
0_
0G
04
0*
0\
1X
1T
1P
0H
0B
1L
0N
1M
1J
1K
0;
1:
19
18
06
05
17
0#
1$
1%
1&
0(
0)
1'
0X
0T
0L
0Q
1N
0O
0:
09
07
0$
0%
0'
0P
0R
1S
08
0&
#150000
b110 "
b100 !
b110 !
b100 "
b111 !
1>
1@
1C
0<
0F
1+
1b
0l
0m
0k
0j
0h
0A
0i
12
1?
1G
0D
0J
0[
1W
0N
1`
1a
14
1*
1H
0?
1\
1X
1T
0K
0S
1N
16
04
1;
1:
19
1(
0*
1#
1$
1%
0\
0X
1P
1O
1S
0;
0:
18
0#
0$
1&
1L
0T
0P
0S
17
09
08
1'
0%
0&
1P
1T
18
19
1&
1%
0T
09
0%
#155000
b0 "
b1 "
b1001 "
b11 !
b1 !
b1011 "
0@
0C
1=
1<
0E
1F
0+
0`
0a
1k
1l
1j
1i
1h
1g
1]
0b
1^
1?
1I
1J
1S
0Z
1`
1a
1_
1V
14
1*
0L
1B
1\
1X
1T
0P
0H
0M
0J
0O
0W
1Q
0N
1R
1[
07
15
1;
1:
19
08
06
0'
1)
1#
1$
1%
0&
0(
0T
0\
0X
1N
1O
0U
0R
09
0;
0:
0%
0#
0$
1L
1X
1T
1\
1Y
0V
17
1:
19
1;
1'
1$
1%
1#
0T
1Z
09
0%
0X
0:
0$
0\
0;
0#
#160000
b1111 "
1E
1+
0]
0^
02
0Z
0`
0a
0I
1D
0_
0Y
1V
0N
1M
1J
1U
1R
1Z
1\
0L
1H
1X
0S
0Q
1N
0V
1;
07
16
1:
1#
0'
1(
1$
1P
1L
1T
0\
0R
1S
18
17
19
0;
1&
1'
1%
0#
0T
0P
0X
09
08
0:
0%
0&
0$
#165000
b1001 !
b111 "
b101 "
0<
0F
13
0+
0h
0g
1b
0k
0l
1m
0i
12
0?
0[
1W
0S
1K
0D
0N
1_
04
0*
1\
1X
1T
1P
0H
0B
1?
0O
0K
1R
1;
1:
19
18
06
05
14
1#
1$
1%
1&
0(
0)
1*
0\
0X
0T
0L
1H
0P
1O
0;
0:
09
07
16
08
0#
0$
0%
0'
1(
0&
1P
1L
1T
18
17
19
1&
1'
1%
0P
08
0&
#170000
b1000 !
b100 "
b0 "
b1000 "
b1010 "
0=
1<
0E
1F
0>
1+
1k
1l
1d
1h
1]
1A
1^
0?
1I
0G
0W
1`
1a
0_
1V
04
0*
1\
1X
0T
0M
0J
1K
1[
1N
0O
0R
1;
1:
09
1#
1$
0%
0H
0L
1Q
0N
1S
1W
06
07
0(
0'
0\
1T
1R
0S
0W
0;
19
0#
1%
1P
0T
0X
18
09
0:
1&
0%
0$
1X
1:
1$
#175000
b1100 !
b1110 !
b110 !
b1011 "
b11 "
1=
0F
1@
1C
03
0+
0k
0l
1i
0d
0]
0b
0^
0`
0a
1_
0I
1G
1`
1a
0_
0K
0V
1O
0U
0R
1B
1H
1L
1M
1J
1N
1U
1R
1V
1W
15
16
17
1)
1(
1'
0H
0X
0P
1T
0N
0O
0V
0W
06
0:
08
19
0(
0$
0&
1%
0L
1P
0T
07
18
09
0'
1&
0%
#180000
b111 !
b111 "
b11 !
b1 !
b110 "
b1110 "
0=
1E
1F
1>
0@
0C
1+
1k
1g
02
0a
0`
1D
1S
1O
0Q
1N
0P
1L
0R
08
17
0&
1'
1H
1T
16
19
1(
1%
0T
09
0%
#185000
b1001 !
b1000 !
b1111 "
b111 "
1=
0F
0>
13
0+
1l
0j
1d
0g
1]
1b
0G
0J
0S
1`
1a
1I
0D
1_
1K
0B
1P
0H
0O
1W
1Q
0N
1J
1R
05
18
06
0)
1&
0(
0L
1T
0[
0U
0R
0W
07
19
0'
1%
1X
1L
0T
1V
1W
1[
1:
17
09
1$
1'
0%
1\
1T
0X
1;
19
0:
1#
1%
0$
0\
0;
0#
#190000
b11 "
b1100 !
b1110 !
b110 !
b111 !
b10 "
1>
1@
1C
03
0=
0E
1+
0a
0l
0`
0k
0_
0d
0]
12
1G
0Q
1N
0I
1U
1R
1`
1a
0L
1B
0K
0R
1S
0J
0V
0W
1Q
0N
07
15
0'
1)
1H
0P
0T
1L
1O
1R
0S
16
08
09
17
1(
0&
0%
1'
1P
18
1&
0P
08
0&
#195000
b11 !
b1 !
b1001 !
b1000 !
0>
0@
0C
13
0+
0a
0b
1l
0`
1k
1_
1j
0i
0G
0Q
1D
0U
0R
1J
0L
0H
0B
1K
1U
1R
1V
1W
07
06
05
0'
0(
0)
1T
1L
0O
0V
0W
19
17
1%
1'
0L
0T
07
09
0'
0%
1P
18
1&
#200000
b1010 "
b1110 "
b1111 "
1=
1E
1F
1+
1i
0j
1d
02
1N
0J
0Z
0_
1S
1O
0R
0P
1L
1\
0S
08
17
1;
0&
1'
1#
1P
1W
18
1&
1T
0[
19
1%
1X
1:
1$
0\
0;
0#
#205000
b1100 !
b1110 !
b110 !
b111 !
b111 "
b11 "
b10 "
0=
0E
0F
1>
1@
1C
03
0+
0k
0l
0d
1b
12
0D
1G
1Z
1`
1a
1B
1H
0K
1Q
0N
0O
15
16
1)
1(
1\
0L
1O
1R
1;
07
1#
0'
1L
0W
17
1'
0P
0T
1[
08
09
0&
0%
0X
0:
0$
0\
0;
0#
#210000
b0 "
b11 !
b1 !
b1001 !
b1000 "
b1100 "
b1101 "
0@
0C
13
1=
0<
1E
1F
1+
0`
0a
1_
1j
1d
1^
0i
0h
1g
1]
0b
0A
1?
0Q
0U
0R
1J
1V
0[
1W
1`
1a
1D
0_
14
1*
0L
1\
1X
1T
1P
0H
0B
1U
1Y
0V
0O
1N
07
1;
1:
19
18
06
05
0'
1#
1$
1%
1&
0(
0)
0T
0\
1H
0Y
1V
0Z
1S
09
0;
16
0%
0#
1(
0X
1Z
0:
0$
1X
1\
1T
1:
1;
19
1$
1#
1%
0\
0;
0#
#215000
b1101 !
b1111 !
b111 !
b101 "
b1 "
b0 "
0=
0E
0F
1@
1C
03
0+
0m
0j
0d
0g
0]
0^
02
0`
0a
1_
0J
0D
0_
0V
0N
1O
1R
0?
0P
1L
0R
0S
0W
04
08
17
0*
0&
1'
0L
0H
0X
0T
1W
07
06
0:
09
0'
0(
0$
0%
1X
1:
1$
0X
0:
0$
#220000
b10 "
b11 !
b1010 "
b1110 "
0C
1<
1E
1F
1+
1j
1f
1h
1g
1m
1i
1?
1J
1R
1A
1N
14
1*
1\
1X
1T
1P
0?
0W
1S
1;
1:
19
18
04
1#
1$
1%
1&
0*
1L
0T
1B
0P
1[
17
09
15
08
1'
0%
1)
0&
0X
1T
0:
19
0$
1%
0\
0;
0#
#225000
b1 !
b1001 !
b1111 "
b1101 "
b1101 !
1=
0<
0@
1C
13
0+
1k
0i
1d
1e
0f
0h
1]
0A
1^
12
1?
1I
0N
1Y
0R
0[
1a
14
1*
1\
1X
0T
0B
0M
0J
0S
0Z
1W
0O
1;
1:
09
05
1#
1$
0%
0)
1P
1T
0\
0L
1N
1O
1S
18
19
0;
07
1&
1%
0#
0'
1L
0T
1\
0X
0P
17
09
1;
0:
08
1'
0%
1#
0$
0&
1T
19
1%
#230000
b1111 !
b111 !
b11 !
1@
0C
03
1+
1f
1`
0a
0k
1l
0e
1_
0j
0d
0U
1Q
0N
0I
1D
0Y
1V
1M
1J
1Z
0L
1B
1Y
0V
1R
0S
0J
0Z
0Q
1N
07
15
0'
1)
1P
1H
1X
1L
0\
1Z
0R
1S
18
16
1:
17
0;
1&
1(
1$
1'
0#
0X
0L
1\
0P
0:
07
1;
08
0$
0'
1#
0&
0\
0;
0#
#235000
b10 !
b1100 "
b1010 !
b1110 !
0=
0>
1C
13
0+
0l
0m
0g
1b
1e
0`
0_
1d
0S
1K
1V
0N
1U
1R
0Z
0B
0?
1P
0H
0V
05
04
18
06
0)
0*
1&
0(
1L
1X
0P
1\
17
1:
08
1;
1'
1$
0&
1#
0X
0:
0$
#240000
b1110 "
b110 !
03
1<
1+
0d
0^
1_
1i
1h
0]
0b
1l
1m
02
1?
0Y
1V
0U
0R
1N
0W
0D
0_
0K
1A
14
1*
0\
1X
0T
1H
1B
0?
1Z
1[
1Y
0V
1W
1U
1R
0G
0;
1:
09
16
15
04
0#
1$
0%
1(
1)
0*
1T
1P
0H
0L
0B
0Z
0[
0Y
1V
0W
19
18
06
07
05
1%
1&
0(
0'
0)
0T
1H
1Z
1[
09
16
0%
1(
#245000
b110 "
b10 "
b100 !
b0 !
0@
0C
0E
0F
0+
0f
1k
0e
1j
12
0R
1D
0V
1J
1W
1K
1T
0H
0X
1L
0[
0O
19
06
0:
17
1%
0(
0$
1'
1X
0L
1S
1:
07
1$
0'
1\
0P
0W
1;
08
1#
0&
0T
1[
09
0%
0X
0:
0$
0\
0;
0#
#250000
b1010 "
1F
1+
1]
1b
1^
0Z
1`
1a
1I
0D
1_
1V
1H
1Q
0N
0M
0J
1R
16
1(
1\
1L
0H
1X
0U
0R
0S
1N
1;
17
06
1:
1#
1'
0(
1$
1P
0L
1T
1Y
0V
1W
1S
18
07
19
1&
0'
1%
0P
1Z
0[
0W
08
0&
0T
1[
09
0%
0X
0:
0$
0\
0;
0#
#255000
b1 !
b1000 "
b1001 !
b0 "
0<
0F
1>
13
0+
0h
0]
0b
0k
0l
0A
0m
0^
0i
02
0j
0_
1?
0[
1W
0Z
0`
0a
0I
0K
1G
0Y
1V
0N
1M
1J
1U
1R
14
1*
1\
1X
1T
1H
0?
0Q
1O
0J
1Z
0S
0V
0W
1;
1:
19
16
04
1#
1$
1%
1(
0*
1L
0H
1P
0T
0R
1W
17
06
18
09
1'
0(
1&
0%
0P
0L
0\
1T
08
07
0;
19
0&
0'
0#
1%
0T
0X
09
0:
0%
0$
#260000
b1 "
b1000 !
b11 "
0>
1=
1<
1+
1l
1m
1k
1i
1h
12
1?
1A
1D
1N
1_
14
1*
1B
0?
1\
1X
1T
0G
1R
15
04
1;
1:
19
1)
0*
1#
1$
1%
0B
1H
1P
1K
0W
05
16
18
0)
1(
1&
0H
0T
1[
06
09
0(
0%
1L
0X
17
0:
1'
0$
0\
0;
0#
#265000
b1010 !
b10 "
b1011 !
0=
1>
1@
0+
0k
0l
0i
1j
1a
1b
0D
1G
0N
1J
0O
1B
0L
1H
0K
15
07
16
1)
0'
1(
1L
17
1'
0L
07
0'
#270000
b1111 !
b111 !
b1010 "
b101 !
1F
0@
1C
03
1+
1e
1g
1]
0b
1^
1`
0a
1k
0_
0j
1i
1Y
1S
0Z
0`
1a
1I
1_
1Q
1O
0R
0J
0P
0H
1L
1Z
0Q
1N
1J
0U
0S
08
06
17
0&
0(
1'
1\
1P
1U
1R
1S
0O
1V
1W
1;
18
1#
1&
0\
0P
0L
1T
0V
0W
0;
08
07
19
0#
0&
0'
1%
1P
18
1&
#275000
b100 !
b0 !
b1000 !
b10 "
b1010 !
0F
0>
1@
0C
13
0+
0e
0g
0]
0^
0a
1l
1`
0k
0_
1j
0i
0Y
0Z
0`
1a
0I
1_
1O
0G
0R
0M
0J
0P
1L
0B
1Z
1M
1J
1R
0S
08
17
05
0&
1'
0)
1\
1P
1H
0T
0N
0O
1;
18
16
09
1#
1&
1(
0%
0\
0L
0;
07
0#
0'
#280000
b110 "
b100 "
b101 "
b1000 !
0@
1=
0<
1E
1+
0a
0l
0m
0h
0A
1?
1O
1G
0[
1W
14
1*
1L
0?
1\
1X
1T
17
04
1;
1:
19
1'
0*
1#
1$
1%
0P
0H
0\
0X
08
06
0;
0:
0&
0(
0#
0$
#285000
b1100 !
b1101 "
b1111 "
b1110 !
1<
1F
1@
1C
0+
1d
1e
1f
1h
1m
1i
02
0j
1`
1a
1?
0Z
1V
0U
0R
0W
1A
1Q
0`
0a
0_
0J
0O
14
1*
1\
1X
0T
0?
0L
1[
1Y
0V
1W
0Q
1N
1O
1;
1:
09
04
07
1#
1$
0%
0*
0'
0\
1T
1B
1P
1Z
0[
1U
1R
0;
19
15
18
0#
1%
1)
1&
1\
0Y
1V
0W
1;
1#
0T
0Z
1[
09
0%
#290000
b1111 !
b111 !
b1011 "
b1001 "
0<
0E
1>
03
1+
0d
0h
1g
1]
1b
1k
1l
0A
1^
0i
1?
1W
1S
1I
1Y
0V
0N
14
1*
0\
0X
1T
0P
1H
0[
0W
1J
1Z
0S
0;
0:
19
08
16
0#
0$
1%
0&
1(
0T
1P
1W
09
18
0%
1&
1X
1L
1T
1:
17
19
1$
1'
1%
0X
0:
0$
#295000
b11 !
b1 "
b10 !
b1010 !
0F
0>
0C
13
0+
0e
0f
0g
0]
0b
0^
1a
0m
0k
1_
1j
0Y
0Z
0a
0I
0_
0O
0M
0J
0P
0H
0L
0?
1Z
1O
1M
1J
0R
1N
08
06
07
04
0&
0(
0'
0*
1\
1P
0N
1;
18
1#
1&
0\
1L
0T
0;
17
09
0#
1'
0%
0P
08
0&
